<svg width="38" height="36" viewBox="0 0 38 36" fill="none" xmlns="http://www.w3.org/2000/svg">
<path d="M0.000211744 19.2L2.37521 19.2L2.375 3.60001C2.37499 2.93727 2.90665 2.40001 3.56249 2.4L19.0048 2.40003L19.0048 2.85294e-05L3.56247 0C1.59494 2.36349e-05 -2.33884e-05 1.61182 2.56478e-10 3.60004L0.000211744 19.2Z" fill="white"/>
<path d="M20.6734 35.9436L27.7991 28.8H34.4349C36.4025 28.8 37.9974 27.1882 37.9974 25.2V10.8C37.9974 8.81179 36.4025 7.20001 34.4349 7.20001H10.6849C8.71743 7.20001 7.12244 8.81179 7.12244 10.8L7.12246 25.2336C7.12796 27.2218 8.72739 28.829 10.6949 28.8235L19.0085 28.8L19.0018 26.4L10.6883 26.4235C10.0324 26.4253 9.49928 25.8896 9.49744 25.2235V10.8C9.49744 10.1373 10.0291 9.60001 10.6849 9.60001H34.4349C35.0908 9.60001 35.6224 10.1373 35.6224 10.8V25.2C35.6224 25.8628 35.0908 26.4 34.4349 26.4H26.8208L19.0007 34.2398L20.6734 35.9436Z" fill="white"/>
</svg>
