<svg width="12" height="18" viewBox="0 0 12 18" fill="none" xmlns="http://www.w3.org/2000/svg">
<path d="M6 7C6.55231 7 7 6.55228 7 6C7 5.44772 6.55231 5 6 5C5.44769 5 5 5.44772 5 6C5 6.55228 5.44769 7 6 7Z" fill="white" fill-opacity="0.8"/>
<path fill-rule="evenodd" clip-rule="evenodd" d="M7.61615 15.0233C7.25275 15.5624 6.90576 16.0773 6.59369 16.5564C6.37683 16.8895 6.17682 17.2053 6 17.5C5.82318 17.2053 5.62317 16.8895 5.40631 16.5564C5.09424 16.0773 4.74725 15.5624 4.38385 15.0233L4.38257 15.0214C2.42761 12.121 0 8.5193 0 6C0 2.68629 2.68628 0 6 0C9.31372 0 12 2.68629 12 6C12 8.5193 9.57239 12.121 7.61743 15.0214L7.61615 15.0233ZM11 6C11 6.63565 10.7937 7.43829 10.3944 8.38397C10 9.318 9.44714 10.323 8.82178 11.3461C8.19745 12.3674 7.51556 13.3832 6.86761 14.3446L6.78046 14.4739C6.51202 14.8722 6.24872 15.2628 6 15.6388C5.75128 15.2628 5.48798 14.8722 5.21954 14.4739L5.13239 14.3446C4.48444 13.3832 3.80255 12.3674 3.17822 11.3461C2.55286 10.323 2 9.318 1.60559 8.38397C1.2063 7.43829 1 6.63565 1 6C1 3.23857 3.23859 1 6 1C8.76141 1 11 3.23857 11 6Z" fill="white" fill-opacity="0.8"/>
</svg>
